{
    "event_date" : "2024-03-06",
    "event_time": "19:00",
    "event_location_name": "Soho Office - The Strand - 4th floor",
    "event_location_url": "https://goo.gl/maps/HsBRg3EvKezTPECj6",
    "event_name": "Crypto Hub Malta - Re-Staking ",
    "event_description": "Re-staking brings the high level of security from blockchains to the rest of the world- in exchange for protocol fees and rewards.",
    "event_teaser": "https://gitlab.com/crypto-hub-malta/events/-/raw/main/data/2024-03-27_teaser.jpg",
    "event_price": "free",
    "event_url": " https://www.facebook.com/events/397860766323655",
    "event_booking_url": "",
    "event_speeches": [
        {
            "speech_title": "Simply Staking - Re-Staking",
            "speech_description": "Let’s talk about Re-staking! It is the new digital security gun to hire.",
            "speech_format": "speech",
            "speech_speakers": [
                {
                    "speaker_name": "Damien Bonello",
                    "speaker_photo_url": "",
                    "speaker_description": "He a protocol specialist with a background in Finance and Economics, is here to share his insight on the latest trend in Decentralized Finance (DeFi) and Re-staking as Part 3 of a series, focusing on blockchain infrastructure.",
                    "speaker_links": [
                        {
                            "url": "https://simplystaking.com",
                            "name": ""
                        }

                    ]
                }
            ],
            "speech_links": []
        }
    ]
}
