{
    "event_date" : "2024-05-29",
    "event_time": "19:00",
    "event_location_name": "Soho Office - The Strand - 4th floor",
    "event_location_url": "https://goo.gl/maps/HsBRg3EvKezTPECj6",
    "event_name": "Blockchain Comedy Night",
    "event_description": "Get ready for the Blockchain Comedy Night ever! ",
    "event_teaser": "https://gitlab.com/crypto-hub-malta/events/-/raw/main/data/2024-05-29_teaser.jpg",
    "event_price": "free",
    "event_url": "https://www.facebook.com/events/1084542189287188 ",
    "event_booking_url": "",
    "event_speeches": [
        {
            "speech_title": "Blockchain Comedy Night",
            "speech_description": "Meet your host, Nicholas Jackman, and a lineup of comedians who might just make you forget about those crypto fluctuations for one fun night!",
            "speech_format": "speech",
            "speech_speakers": [
                {
                    "speaker_name": " Nicholas Jackman",
                    "speaker_photo_url": "",
                    "speaker_description": "Hosting Nefertiti the full-time backpacker, Felipe from Colombia, Jorgen investing with his piggy bank and Paige Possanza how is a 2013 Doge-coin OG.",
                    "speaker_links": [
                        {
                            "url": "",
                            "name": ""
                        }

                    ]
                }
            ],
            "speech_links": []
        }
    ]
}
