{
    "event_date" : "2024-04-10",
    "event_time": "19:00",
    "event_location_name": "Soho Office - The Strand - 4th floor",
    "event_location_url": "https://goo.gl/maps/HsBRg3EvKezTPECj6",
    "event_name": "Crypto Hub Malta - Smart Domains ",
    "event_description": "Imagine being onboarded to the entire web3 by just selecting a simple username. The team behind Smart Domains proved this idea by winning Chainlink Constellation, the biggest Chainlink Hackathon ever with unwallet.me ",
    "event_teaser": "https://gitlab.com/crypto-hub-malta/events/-/raw/main/data/2024-04-10_teaser.jpg",
    "event_price": "free",
    "event_url": "https://www.facebook.com/events/25223747530573503",
    "event_booking_url": "",
    "event_speeches": [
        {
            "speech_title": "Smart Domain",
            "speech_description": "The Smart Domains protocol enables every web3 application the opportunity to create a user experience that is indistringuishable from web2. ",
            "speech_format": "speech",
            "speech_speakers": [
                {
                    "speaker_name": "Maximilian",
                    "speaker_photo_url": "",
                    "speaker_description": "Maximilian from Smart Domains has a background in industrial engineering and has followed Web3 since 2017. ",
                    "speaker_links": [
                        {
                            "url": "https://nameverse.org/ ",
                            "name": ""
                        }

                    ]
                }
            ],
            "speech_links": []
        }
    ]
}
