{
    "event_date" : "2024-01-31",
    "event_time": "19:00",
    "event_location_name": "Soho Office - The Strand - 4th floor",
    "event_location_url": "https://goo.gl/maps/HsBRg3EvKezTPECj6",
    "event_name": "Sonar - DeFi Made Easy",
    "event_description": "coming soon",
    "event_teaser": "https://gitlab.com/crypto-hub-malta/events/-/raw/main/data/2024-01-31_teaser.jpg",
    "event_price": "free",
    "event_url": "",
    "event_booking_url": "",
    "event_speeches": [
        {
            "speech_title": "Sonar",
            "speech_description": "coming soon",
            "speech_format": "speech",
            "speech_speakers": [
                {
                    "speaker_name": "Jacob Camilleri",
                    "speaker_photo_url": "",
                    "speaker_description": "coming soon",
                    "speaker_links": [
                        {
                            "url": "https://www.sonarplatform.io/",
                            "name": ""
                        }

                    ]
                }
            ],
            "speech_links": []
        }
    ]
}
