{
    "event_date" : "2025-1-29",
    "event_time": "19:00",
    "event_location_name": "Soho Office - The Strand - 4th floor",
    "event_location_url": "https://goo.gl/maps/HsBRg3EvKezTPECj6",
    "event_name": "Crypto Hub Malta - Infrastructure of Blockchain Interoperability",
    "event_description": "Discover how different blockchain networks connect and communicate to unlock the full potential of decentralized technologies.",
    "event_teaser": "https://gitlab.com/crypto-hub-malta/events/-/raw/main/data/2025-01-29_teaser.jpg",
    "event_price": "free",
    "event_url": "https://www.facebook.com/events/1275499307047376",
    "event_booking_url": "",
    "event_speeches": [
        {
            "speech_title": "Infrastructure of Blockchain Interoperability",
            "speech_description": "We're excited to present 'Infrastructure of Blockchain Interoperability' brought to you by Simply Staking and presented by Isaac Zarb, CTO of Simply Staking. Discover how different blockchain networks connect and communicate to unlock the full potential of decentralized technologies. ",
            "speech_format": "speech",
            "speech_speakers": [
                {
                    "speaker_name": "Isaac Zarb",
                    "speaker_photo_url": "",
                    "speaker_description": "Isaac is the CTO of Simply Staking",
                    "speaker_links": [
                        {
                            "url": "https://simplystaking.com/events/crypto-hub-malta-infrastructure-of-blockchain-interoperability",
                            "name": ""
                        }

                    ]
                }
            ],
            "speech_links": []
        }
    ]
}